{
  "_fv": 18,
  "_type": "procedure",
  "definition": {
    "procedurexml": "<xml xmlns=\"https://developers.google.com/blockly/xml\"><variables><variable type=\"Number\" id=\"looptimes\">looptimes</variable><variable type=\"Number\" id=\"daminuse\">daminuse</variable></variables><block type=\"event_trigger\" deletable=\"false\" x=\"76\" y=\"86\"><field name=\"trigger\">entity_dies</field><next><block type=\"controls_if\"><value name=\"IF0\"><block type=\"logic_binary_ops\"><field name=\"OP\">EQ</field><value name=\"A\"><block type=\"variables_get_logic\"><field name=\"VAR\">global:usebcxpsys</field></block></value><value name=\"B\"><block type=\"logic_boolean\"><field name=\"BOOL\">TRUE</field></block></value></block></value><statement name=\"DO0\"><block type=\"controls_repeat_ext\"><value name=\"TIMES\"><block type=\"entity_nbt_num_get\"><value name=\"entity\"><block type=\"entity_from_deps\"></block></value><value name=\"tagName\"><block type=\"text\"><field name=\"TEXT\">tagAmount</field></block></value></block></value><statement name=\"DO\"><block type=\"variables_set_number\"><field name=\"VAR\">local:looptimes</field><value name=\"VAL\"><block type=\"math_dual_ops\"><field name=\"OP\">ADD</field><value name=\"A\"><block type=\"variables_get_number\"><field name=\"VAR\">local:looptimes</field></block></value><value name=\"B\"><block type=\"math_number\"><field name=\"NUM\">1</field></block></value></block></value><next><block type=\"controls_if\"><mutation elseif=\"1\"></mutation><value name=\"IF0\"><block type=\"logic_binary_ops\"><field name=\"OP\">EQ</field><value name=\"A\"><block type=\"variables_get_logic\"><field name=\"VAR\">global:bcxpusemultiply</field></block></value><value name=\"B\"><block type=\"logic_boolean\"><field name=\"BOOL\">TRUE</field></block></value></block></value><statement name=\"DO0\"><block type=\"controls_if\"><mutation else=\"1\"></mutation><value name=\"IF0\"><block type=\"math_binary_ops\"><field name=\"OP\">LT</field><value name=\"A\"><block type=\"math_singular_ops\"><field name=\"OP\">ROUND</field><value name=\"NUM\"><block type=\"math_dual_ops\"><field name=\"OP\">MULTIPLY</field><value name=\"A\"><block type=\"entity_nbt_num_get\"><value name=\"entity\"><block type=\"entity_from_deps\"></block></value><value name=\"tagName\"><block type=\"text_join\"><mutation items=\"2\"></mutation><value name=\"ADD0\"><block type=\"text\"><field name=\"TEXT\">tagDamage</field></block></value><value name=\"ADD1\"><block type=\"variables_get_number\"><field name=\"VAR\">local:looptimes</field></block></value></block></value></block></value><value name=\"B\"><block type=\"variables_get_number\"><field name=\"VAR\">global:bcxpinteger</field></block></value></block></value></block></value><value name=\"B\"><block type=\"math_number\"><field name=\"NUM\">1</field></block></value></block></value><statement name=\"DO0\"><block type=\"variables_set_number\"><field name=\"VAR\">local:daminuse</field><value name=\"VAL\"><block type=\"math_number\"><field name=\"NUM\">1</field></block></value></block></statement><statement name=\"ELSE\"><block type=\"variables_set_number\"><field name=\"VAR\">local:daminuse</field><value name=\"VAL\"><block type=\"math_singular_ops\"><field name=\"OP\">ROUND</field><value name=\"NUM\"><block type=\"math_dual_ops\"><field name=\"OP\">MULTIPLY</field><value name=\"A\"><block type=\"entity_nbt_num_get\"><value name=\"entity\"><block type=\"entity_from_deps\"></block></value><value name=\"tagName\"><block type=\"text_join\"><mutation items=\"2\"></mutation><value name=\"ADD0\"><block type=\"text\"><field name=\"TEXT\">tagDamage</field></block></value><value name=\"ADD1\"><block type=\"variables_get_number\"><field name=\"VAR\">local:looptimes</field></block></value></block></value></block></value><value name=\"B\"><block type=\"variables_get_number\"><field name=\"VAR\">global:bcxpinteger</field></block></value></block></value></block></value></block></statement><next><block type=\"execute_command\"><value name=\"command\"><block type=\"text_join\"><mutation items=\"4\"></mutation><value name=\"ADD0\"><block type=\"text\"><field name=\"TEXT\">experience add </field></block></value><value name=\"ADD1\"><block type=\"entity_nbt_text_get\"><value name=\"entity\"><block type=\"entity_from_deps\"></block></value><value name=\"tagName\"><block type=\"text_join\"><mutation items=\"2\"></mutation><value name=\"ADD0\"><block type=\"text\"><field name=\"TEXT\">tagName</field></block></value><value name=\"ADD1\"><block type=\"variables_get_number\"><field name=\"VAR\">local:looptimes</field></block></value></block></value></block></value><value name=\"ADD2\"><block type=\"text\"><field name=\"TEXT\"> </field></block></value><value name=\"ADD3\"><block type=\"text_format_number\"><value name=\"number\"><block type=\"variables_get_number\"><field name=\"VAR\">local:daminuse</field></block></value><value name=\"format\"><block type=\"text\"><field name=\"TEXT\">#####</field></block></value></block></value></block></value><value name=\"x\"><block type=\"coord_x\"></block></value><value name=\"y\"><block type=\"coord_y\"></block></value><value name=\"z\"><block type=\"coord_z\"></block></value></block></next></block></statement><value name=\"IF1\"><block type=\"logic_binary_ops\"><field name=\"OP\">EQ</field><value name=\"A\"><block type=\"variables_get_logic\"><field name=\"VAR\">global:bcxpusedivide</field></block></value><value name=\"B\"><block type=\"logic_boolean\"><field name=\"BOOL\">TRUE</field></block></value></block></value><statement name=\"DO1\"><block type=\"controls_if\"><mutation else=\"1\"></mutation><value name=\"IF0\"><block type=\"math_binary_ops\"><field name=\"OP\">LT</field><value name=\"A\"><block type=\"math_singular_ops\"><field name=\"OP\">ROUND</field><value name=\"NUM\"><block type=\"math_dual_ops\"><field name=\"OP\">DIVIDE</field><value name=\"A\"><block type=\"entity_nbt_num_get\"><value name=\"entity\"><block type=\"entity_from_deps\"></block></value><value name=\"tagName\"><block type=\"text_join\"><mutation items=\"2\"></mutation><value name=\"ADD0\"><block type=\"text\"><field name=\"TEXT\">tagDamage</field></block></value><value name=\"ADD1\"><block type=\"variables_get_number\"><field name=\"VAR\">local:looptimes</field></block></value></block></value></block></value><value name=\"B\"><block type=\"variables_get_number\"><field name=\"VAR\">global:bcxpinteger</field></block></value></block></value></block></value><value name=\"B\"><block type=\"math_number\"><field name=\"NUM\">1</field></block></value></block></value><statement name=\"DO0\"><block type=\"variables_set_number\"><field name=\"VAR\">local:daminuse</field><value name=\"VAL\"><block type=\"math_number\"><field name=\"NUM\">1</field></block></value></block></statement><statement name=\"ELSE\"><block type=\"variables_set_number\"><field name=\"VAR\">local:daminuse</field><value name=\"VAL\"><block type=\"math_singular_ops\"><field name=\"OP\">ROUND</field><value name=\"NUM\"><block type=\"math_dual_ops\"><field name=\"OP\">DIVIDE</field><value name=\"A\"><block type=\"entity_nbt_num_get\"><value name=\"entity\"><block type=\"entity_from_deps\"></block></value><value name=\"tagName\"><block type=\"text_join\"><mutation items=\"2\"></mutation><value name=\"ADD0\"><block type=\"text\"><field name=\"TEXT\">tagDamage</field></block></value><value name=\"ADD1\"><block type=\"variables_get_number\"><field name=\"VAR\">local:looptimes</field></block></value></block></value></block></value><value name=\"B\"><block type=\"variables_get_number\"><field name=\"VAR\">global:bcxpinteger</field></block></value></block></value></block></value></block></statement><next><block type=\"execute_command\"><value name=\"command\"><block type=\"text_join\"><mutation items=\"4\"></mutation><value name=\"ADD0\"><block type=\"text\"><field name=\"TEXT\">experience add </field></block></value><value name=\"ADD1\"><block type=\"entity_nbt_text_get\"><value name=\"entity\"><block type=\"entity_from_deps\"></block></value><value name=\"tagName\"><block type=\"text_join\"><mutation items=\"2\"></mutation><value name=\"ADD0\"><block type=\"text\"><field name=\"TEXT\">tagName</field></block></value><value name=\"ADD1\"><block type=\"variables_get_number\"><field name=\"VAR\">local:looptimes</field></block></value></block></value></block></value><value name=\"ADD2\"><block type=\"text\"><field name=\"TEXT\"> </field></block></value><value name=\"ADD3\"><block type=\"text_format_number\"><value name=\"number\"><block type=\"variables_get_number\"><field name=\"VAR\">local:daminuse</field></block></value><value name=\"format\"><block type=\"text\"><field name=\"TEXT\">#####</field></block></value></block></value></block></value><value name=\"x\"><block type=\"coord_x\"></block></value><value name=\"y\"><block type=\"coord_y\"></block></value><value name=\"z\"><block type=\"coord_z\"></block></value></block></next></block></statement></block></next></block></statement></block></statement></block></next></block></xml>"
  }
}