{
  "_fv": 18,
  "_type": "particle",
  "definition": {
    "texture": "xpnumber52.png",
    "animate": false,
    "frameDuration": 1,
    "width": 0.2,
    "height": 0.2,
    "scale": 1.0,
    "speedFactor": 0.0,
    "gravity": -0.1,
    "maxAge": 20,
    "maxAgeDiff": 0,
    "angularVelocity": 0.0,
    "angularAcceleration": 0.0,
    "canCollide": false,
    "alwaysShow": true,
    "renderType": "OPAQUE"
  }
}